{
    "openapi": "3.0.1",
    "info": {"title":"Artikelpro API","description":"Artikelpro Api","version":"2.0.0"},
    "servers": [
        {"url":"https://data.artikelpro.eu/v2"}
    ],
    "tags": [],
    "paths": {
        "/contentResult/crud": {
            "get": {
                "summary": "Get contentResults",
                "security": [
                    {
                        "jwt": []
                    }
                ],
                "parameters": [
                    {
                        "name": "batchId",
                        "in": "query",
                        "description": "for retrieving a specific batch again",
                        "required": false,
                        "schema": {"type":"integer"}
                    },
                    {
                        "name": "maxResultsCount",
                        "in": "query",
                        "schema": {"maximum":50,"minimum":1,"type":"integer","default":50}
                    }
                ],
                "responses": {
                    "200": {
                        "description": "List of contentResults",
                        "content": {
                            "application/json": {
                                "schema": {"$ref":"#/components/schemas/ContentResults"}
                            }
                        }
                    }
                }
            }
        }
    },
    "components": {
        "schemas": {
            "ContentResult": {
                "type": "object",
                "properties": {
                    "contentId": {"type":"integer"},
                    "queryName": {"type":"string"},
                    "queryType": {"type": "string","enum": ["profile","backSearch"]},
                    "customer": {"type":"string"},
                    "reference": {"type":"string"},
                    "source": {"type":"string"},
                    "title": {"type":"string"},
                    "publicationDateTime": {"type":"string","format":"date-time"},
                    "contentGroup": {"type": "string","enum": ["DPG","Mediahuis","OverigeKranten","vakbladen","tijdschriften"]},
                    "mediaType": {"type": "string","enum": ["print","web"]},
                    "insertDateTime": {"type":"string","format":"date-time"},
                    "firstPageNumber": {"type":"integer"},
                    "body": {"type":"string"},
                    "snippet": {"type":"string"},
                    "link": {"type":"string","format":"url"},
                    "checkedDateTime": {"type":"string","format":"date-time"},
                    "checkedBy": {"type":"string"}
                },
                "required": ["contentId","queryName","queryType","customer","source","title","publicationDateTime","contentGroup","mediaType","insertDateTime","body","snippet","link","checkedDateTime"]
            },
            "ContentResults": {
                "required": ["results"],
                "type": "object",
                "properties": {
                    "results": {"type": "array","items": {"$ref":"#/components/schemas/ContentResult"}},
                    "remainingCount": {"type":"integer"},
                    "batchId": {"type":"integer"}
                }
            }
        },
        "securitySchemes": {
            "jwt": {"type":"http","scheme":"bearer","bearerFormat":"JWT","description":"See #components/schemas/JWT"}
        }
    },
    "security": []
}
